{
    "todos": [
      {
        "Titulo": "Tarea 1",
        "Responsable": "Jesus",
        "Descripcion": "Tengo tarea",
        "Prioridad": "Baja"
      },
      {
        "Titulo": "Tarea 2",
        "Responsable": "Enrique",
        "Descripcion": "Mucha tarea",
        "Prioridad": "Media"
      },
      {
        "Titulo": "Tarea 3",
        "Responsable": "Moncada",
        "Descripcion": "Tareas",
        "Prioridad": "Alta"
      }
    ]
  }